[
	{"name": "GCompris", "application": "gcompris", "type": "generic-build", "cmakeParameters": "", "dependency": "export APP_GIT_EXTRA='--recurse-submodules'"},
	{"name": "Marble", "application": "marble", "type": "generic-build", "cmakeParameters": "", "dependency": "sudo /opt/android-sdk/tools/bin/sdkmanager 'platforms;android-23' 'build-tools;28.0.0'"},
	{"name": "KStars", "application": "kstars", "type": "generic-build", "cmakeParameters": "", "dependency": "/opt/helpers/build-eigen && sudo apt install dos2unix"},
	{"name": "KAlgebra", "application": "kalgebra", "type": "generic-build", "cmakeParameters": "", "dependency": ""},
	{"name": "KirigamiGallery", "application": "kirigami-gallery", "type": "generic-build", "cmakeParameters": "-DBUILD_EXAMPLES=ON", "dependency": ""},
	{"name": "Klimbgrades", "application": "klimbgrades", "type": "generic-build", "cmakeParameters": "", "dependency": ""},
	{"name": "KTuberling", "application": "ktuberling", "type": "generic-build", "cmakeParameters": "", "dependency": ""},
	{"name": "vvave", "application": "vvave", "type": "generic-build", "cmakeParameters": "", "dependency": "sudo /opt/android-sdk/tools/bin/sdkmanager 'build-tools;26.0.2'"},
	{"name": "konversation-konvi2x", "application": "konversation", "type": "generic-build", "cmakeParameters": "", "dependency": "export APP_GIT_EXTRA='--branch wip/qtquick'"},
	{"name": "Okular", "application": "okular", "type": "generic-build", "cmakeParameters": "-DCMAKE_EXE_LINKER_FLAGS=/opt/kdeandroid-deps/lib/libpoppler-qt5.so", "dependency": "/opt/helpers/build-poppler"},
	{"name": "Itinerary", "application": "itinerary", "type": "generic-build", "cmakeParameters": "", "dependency": "/opt/helpers/build-poppler -DENABLE_UNSTABLE_API_ABI_HEADERS=ON -DENABLE_UTILS=OFF && /opt/helpers/build-cmake zxing-cpp https://github.com/nu-book/zxing-cpp.git"},
	{"name": "KDEConnect", "application": "kdeconnect-kde", "type": "kdeconnect-build", "cmakeParameters": "", "dependency": ""}
]
